sersum	time	sum
4	1.19E-06	1.920000E-37
8	1.91E-06	3.078000E-36
16	3.64E-04	7.860679E-34
20	4.60E-03	1.24760123E-32
21	6.49E-03	2.4801964E-32
22	1.18E-02	4.94538702E-32
23	2.41E-02	9.87576768E-32
24	4.73E-02	1.975153535E-31
25	9.45E-02	3.944304526E-31
26	1.89E-01	3.944304526E-31
27	3.77E-01	3.944304526E-31
		
		
parsum	time	sum
4	4.60E-05	1.92000E-37
8	1.91E-06	3.07200E-36
16	2.81E-04	7.86432E-34
20	3.47E-03	1.25829118E-32
21	9.07E-03	2.51658235E-32
22	1.85E-02	5.03316471E-32
23	3.42E-02	1.006632942E-31
24	6.83E-02	2.013265883E-31
25	1.37E-01	4.026531767E-31
26	2.80E-01	8.053063533E-31
27	5.50E-01	1.6106127066E-30

